<?xml version="1.0" encoding="utf-8"?>
<!-- Generator: Adobe Illustrator 16.0.0, SVG Export Plug-In . SVG Version: 6.00 Build 0)  -->
<!DOCTYPE svg PUBLIC "-//W3C//DTD SVG 1.1//EN" "http://www.w3.org/Graphics/SVG/1.1/DTD/svg11.dtd">
<svg version="1.1" id="Layer_1" xmlns="http://www.w3.org/2000/svg" xmlns:xlink="http://www.w3.org/1999/xlink" x="0px" y="0px"
	 width="595.28px" height="841.89px" viewBox="0 0 595.28 841.89" enable-background="new 0 0 595.28 841.89" xml:space="preserve">
<linearGradient id="SVGID_1_" gradientUnits="userSpaceOnUse" x1="296.5308" y1="11.2827" x2="298.7635" y2="836.08">
	<stop  offset="0" style="stop-color:#D81F5E"/>
	<stop  offset="0.1819" style="stop-color:#DD2957"/>
	<stop  offset="0.5401" style="stop-color:#E63748"/>
	<stop  offset="0.8253" style="stop-color:#EC3F3C"/>
	<stop  offset="1" style="stop-color:#EF4137"/>
</linearGradient>
<rect fill="url(#SVGID_1_)" width="595.279" height="841.89"/>
<path fill="#FFFFFF" d="M476.738,549.46c-0.085-0.407-0.205-0.803-0.364-1.182c-0.131-0.311-0.293-0.611-0.478-0.891
	c-0.192-0.294-0.417-0.568-0.668-0.816c-0.25-0.251-0.526-0.474-0.819-0.672c-0.28-0.184-0.583-0.34-0.892-0.474
	c-0.378-0.163-0.778-0.279-1.181-0.361c-0.547-0.112-1.113-0.159-1.672-0.159c-0.563,0-1.125,0.047-1.673,0.159
	c-0.406,0.082-0.802,0.202-1.185,0.365c-0.308,0.13-0.608,0.29-0.888,0.477c-0.292,0.194-0.568,0.418-0.816,0.672
	c-0.251,0.247-0.474,0.524-0.668,0.82c-0.188,0.279-0.343,0.58-0.474,0.888c-0.159,0.377-0.279,0.774-0.36,1.177
	c-0.088,0.431-0.135,0.87-0.151,1.309c-0.651-0.533-1.323-1.036-2.023-1.506c-1.846-1.245-3.843-2.263-5.93-3.048
	c-1.467-0.552-2.983-0.99-4.521-1.309c-1.537-0.325-3.098-0.53-4.667-0.619c-0.445-0.023-0.89-0.042-1.336-0.049
	c-0.446-0.011-0.891-0.008-1.337,0.003c-0.657,0.015-1.314,0.05-1.973,0.104c-0.653,0.053-1.309,0.124-1.958,0.215
	c-1.271,0.181-2.529,0.432-3.77,0.757c-1.237,0.328-2.46,0.729-3.648,1.202c-2.334,0.926-4.558,2.136-6.598,3.603
	c-2.032,1.461-3.886,3.179-5.494,5.103c-0.82,0.976-1.577,2.007-2.263,3.083c-0.687,1.074-1.309,2.191-1.853,3.344
	c-0.572,1.203-1.064,2.44-1.478,3.698c-0.41,1.267-0.742,2.553-0.998,3.857c-0.134,0.683-0.243,1.368-0.332,2.058
	c-0.093,0.69-0.163,1.383-0.212,2.076c-0.05,0.714-0.078,1.432-0.088,2.15c-0.007,0.717,0.004,1.434,0.038,2.152
	c0.063,1.375,0.209,2.754,0.436,4.111c0.229,1.365,0.541,2.709,0.933,4.03c0.376,1.256,0.828,2.486,1.354,3.684
	c0.523,1.196,1.128,2.362,1.803,3.483c0.65,1.089,1.372,2.135,2.156,3.133c0.785,0.996,1.635,1.944,2.54,2.836
	c0.89,0.88,1.842,1.707,2.835,2.471c0.997,0.765,2.043,1.463,3.126,2.101c1.096,0.644,2.227,1.216,3.39,1.718
	c1.163,0.503,2.358,0.935,3.571,1.29c0.626,0.184,1.255,0.351,1.889,0.495c0.632,0.146,1.272,0.272,1.912,0.378
	c1.287,0.213,2.581,0.354,3.882,0.41c0.499,0.029,0.996,0.04,1.499,0.04c0.495,0.003,0.996-0.008,1.495-0.029
	c0.774-0.031,1.546-0.095,2.313-0.184c0.766-0.088,1.526-0.205,2.279-0.35c0.757-0.148,1.51-0.321,2.248-0.526
	c0.747-0.205,1.482-0.439,2.207-0.704c0.726-0.262,1.438-0.552,2.143-0.873c1.156-0.531,2.277-1.136,3.352-1.817
	c1.074-0.683,2.104-1.433,3.079-2.249c0.019,0.428,0.062,0.858,0.149,1.277c0.081,0.401,0.201,0.799,0.36,1.18
	c0.131,0.311,0.286,0.608,0.474,0.892c0.194,0.293,0.417,0.569,0.668,0.82c0.248,0.246,0.524,0.474,0.816,0.667
	c0.279,0.188,0.58,0.347,0.888,0.478c0.383,0.163,0.778,0.283,1.185,0.364c0.272,0.061,0.552,0.096,0.831,0.124
	c0.279,0.025,0.559,0.036,0.842,0.036c0.279,0,0.559-0.011,0.842-0.036c0.274-0.028,0.554-0.063,0.83-0.12
	c0.201-0.042,0.4-0.091,0.598-0.154c0.198-0.058,0.396-0.129,0.583-0.209c0.309-0.132,0.611-0.29,0.892-0.479
	c0.145-0.095,0.29-0.197,0.428-0.311c0.134-0.114,0.269-0.23,0.389-0.354c0.127-0.127,0.248-0.258,0.357-0.396
	c0.112-0.135,0.216-0.276,0.313-0.425c0.185-0.283,0.347-0.579,0.478-0.891c0.082-0.191,0.152-0.382,0.214-0.581
	c0.06-0.196,0.108-0.399,0.15-0.601c0.057-0.275,0.096-0.552,0.12-0.835c0.029-0.275,0.04-0.558,0.04-0.837
	c0-16.521,0-33.047,0-49.571C476.898,550.573,476.853,550.008,476.738,549.46z M464.831,577.84c-0.1,1.152-0.283,2.306-0.565,3.43
	c-0.272,1.117-0.637,2.206-1.097,3.26c-0.444,1.04-0.985,2.036-1.611,2.98c-0.626,0.938-1.337,1.817-2.13,2.619
	c-0.798,0.813-1.682,1.545-2.63,2.182c-0.996,0.668-2.064,1.23-3.175,1.679c-1.212,0.495-2.482,0.856-3.769,1.098
	c-1.456,0.275-2.938,0.396-4.419,0.396c-1.227,0-2.455-0.104-3.663-0.319c-1.152-0.205-2.287-0.512-3.387-0.926
	c-1.132-0.424-2.228-0.954-3.261-1.595c-0.951-0.59-1.849-1.269-2.673-2.032c-0.827-0.764-1.584-1.605-2.256-2.51
	c-0.686-0.931-1.286-1.931-1.785-2.971c-0.526-1.096-0.943-2.242-1.255-3.418c-0.17-0.63-0.304-1.271-0.418-1.909
	c-0.105-0.645-0.184-1.292-0.239-1.941c-0.057-0.693-0.078-1.387-0.078-2.08c0.007-0.692,0.038-1.386,0.102-2.071
	c0.062-0.644,0.146-1.287,0.263-1.924c0.116-0.636,0.262-1.265,0.435-1.888c0.163-0.58,0.354-1.152,0.565-1.718
	c0.216-0.559,0.461-1.11,0.729-1.651c0.254-0.514,0.529-1.015,0.833-1.503c0.305-0.487,0.63-0.961,0.977-1.417
	c0.682-0.891,1.449-1.715,2.284-2.462c0.417-0.37,0.852-0.724,1.301-1.053c0.452-0.33,0.919-0.641,1.399-0.927
	c0.552-0.329,1.125-0.632,1.709-0.9c0.583-0.272,1.184-0.514,1.791-0.723c0.56-0.19,1.125-0.354,1.698-0.495
	c0.572-0.141,1.152-0.254,1.735-0.343c0.301-0.046,0.604-0.085,0.909-0.116c0.303-0.036,0.607-0.057,0.912-0.078
	c0.279-0.018,0.558-0.027,0.841-0.034c0.283-0.008,0.565-0.008,0.846-0.008c0.734,0.008,1.467,0.05,2.198,0.12
	c0.733,0.074,1.461,0.184,2.182,0.325c1.273,0.259,2.524,0.633,3.724,1.139c0.548,0.233,1.089,0.492,1.611,0.777
	c0.524,0.287,1.032,0.601,1.524,0.941c0.466,0.325,0.919,0.672,1.354,1.038c0.436,0.372,0.853,0.764,1.245,1.174
	c0.781,0.813,1.481,1.702,2.09,2.646c0.311,0.474,0.594,0.966,0.858,1.463c0.265,0.503,0.506,1.02,0.726,1.542
	c0.222,0.526,0.421,1.067,0.597,1.613c0.178,0.543,0.333,1.1,0.463,1.657c0.27,1.132,0.442,2.288,0.528,3.447
	C464.935,575.514,464.926,576.68,464.831,577.84z"/>
<path fill="#FFFFFF" d="M180.62,549.463c-0.083-0.402-0.203-0.802-0.364-1.181c-0.131-0.311-0.29-0.608-0.476-0.891
	c-0.195-0.293-0.419-0.57-0.668-0.82c-0.25-0.247-0.523-0.471-0.818-0.665c-0.281-0.185-0.578-0.347-0.889-0.477
	c-0.38-0.16-0.778-0.279-1.181-0.365c-0.552-0.112-1.115-0.159-1.678-0.159c-0.562,0-1.126,0.047-1.676,0.159
	c-0.404,0.086-0.8,0.205-1.18,0.368c-0.31,0.131-0.609,0.289-0.889,0.474c-0.294,0.198-0.57,0.421-0.817,0.672
	c-0.25,0.247-0.472,0.524-0.666,0.816c-0.186,0.279-0.345,0.577-0.476,0.888c-0.161,0.379-0.281,0.778-0.364,1.181
	c-0.088,0.429-0.135,0.866-0.151,1.305c-0.648-0.529-1.324-1.028-2.018-1.499c-0.923-0.622-1.884-1.191-2.875-1.696
	c-0.992-0.506-2.011-0.958-3.055-1.348c-1.471-0.556-2.984-0.989-4.522-1.312c-1.538-0.322-3.099-0.527-4.667-0.619
	c-0.445-0.021-0.89-0.042-1.336-0.05c-0.445-0.007-0.892-0.003-1.337,0.008c-0.658,0.015-1.314,0.049-1.97,0.102
	c-0.656,0.055-1.308,0.125-1.96,0.216c-1.27,0.182-2.528,0.432-3.767,0.757c-1.238,0.326-2.457,0.729-3.649,1.203
	c-2.333,0.926-4.556,2.134-6.594,3.599c-2.035,1.464-3.887,3.179-5.496,5.099c-0.818,0.979-1.573,2.007-2.261,3.083
	c-0.688,1.074-1.307,2.191-1.853,3.344c-0.571,1.203-1.063,2.44-1.475,3.702c-0.412,1.263-0.744,2.549-0.997,3.854
	c-0.134,0.683-0.246,1.368-0.335,2.058c-0.091,0.69-0.162,1.383-0.209,2.076c-0.051,0.714-0.082,1.432-0.088,2.15
	c-0.009,0.717,0.003,1.434,0.037,2.152c0.065,1.379,0.208,2.754,0.437,4.115c0.226,1.361,0.537,2.709,0.932,4.03
	c0.374,1.256,0.826,2.485,1.352,3.68c0.527,1.199,1.128,2.362,1.802,3.487c0.653,1.089,1.375,2.136,2.158,3.132
	c0.785,0.997,1.631,1.945,2.535,2.835c0.895,0.882,1.844,1.705,2.839,2.469c0.997,0.767,2.042,1.467,3.125,2.104
	c1.092,0.641,2.224,1.213,3.387,1.715c1.164,0.503,2.356,0.935,3.573,1.294c0.622,0.184,1.253,0.347,1.886,0.491
	c0.634,0.146,1.272,0.272,1.914,0.378c1.283,0.213,2.58,0.354,3.879,0.41c0.498,0.029,0.997,0.04,1.497,0.04
	c0.5,0.003,0.999-0.008,1.5-0.029c0.772-0.031,1.542-0.095,2.312-0.184c0.764-0.088,1.525-0.205,2.28-0.35
	c0.757-0.148,1.507-0.321,2.249-0.526s1.478-0.439,2.202-0.704c0.726-0.262,1.439-0.552,2.139-0.873
	c1.157-0.531,2.277-1.136,3.353-1.817c1.074-0.679,2.103-1.433,3.077-2.249c0.018,0.432,0.064,0.858,0.151,1.283
	c0.083,0.404,0.201,0.804,0.362,1.182c0.133,0.312,0.29,0.607,0.476,0.891c0.194,0.297,0.418,0.569,0.668,0.82
	c0.25,0.248,0.523,0.474,0.818,0.668c0.281,0.188,0.581,0.347,0.892,0.477c0.379,0.163,0.776,0.283,1.181,0.365
	c0.276,0.056,0.553,0.096,0.833,0.123c0.279,0.025,0.559,0.036,0.839,0.036c0.281,0,0.561-0.011,0.842-0.036
	c0.279-0.027,0.557-0.063,0.833-0.12c0.201-0.042,0.401-0.092,0.6-0.155c0.198-0.061,0.393-0.131,0.582-0.213
	c0.311-0.127,0.61-0.289,0.891-0.474c0.149-0.098,0.291-0.204,0.428-0.313c0.136-0.109,0.269-0.23,0.392-0.357
	c0.125-0.12,0.244-0.255,0.355-0.389c0.112-0.142,0.217-0.283,0.315-0.432c0.185-0.279,0.345-0.579,0.476-0.891
	c0.081-0.188,0.15-0.382,0.21-0.581c0.062-0.196,0.111-0.396,0.153-0.601c0.057-0.275,0.095-0.552,0.121-0.831
	c0.026-0.279,0.037-0.562,0.037-0.841c0-16.521,0-33.047,0-49.571C180.779,550.573,180.733,550.008,180.62,549.463z M168.712,577.84
	c-0.097,1.159-0.283,2.306-0.562,3.433c-0.276,1.114-0.64,2.203-1.096,3.257c-0.451,1.04-0.99,2.04-1.618,2.983
	c-0.623,0.935-1.333,1.814-2.123,2.616c-0.803,0.813-1.687,1.549-2.634,2.186c-0.995,0.664-2.063,1.227-3.173,1.675
	c-1.214,0.495-2.479,0.856-3.767,1.098c-1.456,0.275-2.941,0.396-4.423,0.396c-1.227,0-2.452-0.104-3.659-0.319
	c-1.153-0.205-2.289-0.512-3.387-0.922c-1.135-0.428-2.229-0.958-3.258-1.599c-0.953-0.59-1.849-1.269-2.675-2.028
	c-0.829-0.765-1.584-1.609-2.253-2.514c-0.688-0.931-1.286-1.927-1.784-2.971c-0.525-1.096-0.944-2.242-1.255-3.415
	c-0.168-0.63-0.306-1.27-0.414-1.912c-0.109-0.645-0.189-1.292-0.242-1.941c-0.055-0.693-0.079-1.387-0.076-2.08
	c0.004-0.692,0.036-1.386,0.1-2.071c0.06-0.644,0.146-1.287,0.263-1.924c0.115-0.636,0.26-1.265,0.435-1.888
	c0.163-0.58,0.35-1.152,0.565-1.715c0.215-0.562,0.457-1.113,0.723-1.654c0.257-0.514,0.536-1.015,0.838-1.503
	c0.302-0.487,0.627-0.961,0.976-1.413c0.68-0.892,1.444-1.719,2.28-2.462c0.417-0.371,0.852-0.721,1.303-1.053
	c0.451-0.329,0.916-0.637,1.395-0.926c0.553-0.33,1.125-0.63,1.71-0.903c0.584-0.269,1.184-0.508,1.794-0.717
	c0.557-0.19,1.123-0.357,1.695-0.495c0.573-0.142,1.152-0.255,1.734-0.343c0.302-0.046,0.605-0.086,0.909-0.117
	c0.302-0.034,0.606-0.06,0.91-0.077c0.281-0.019,0.563-0.029,0.845-0.035c0.281-0.007,0.563-0.011,0.845-0.007
	c0.733,0.007,1.467,0.049,2.199,0.119c0.73,0.074,1.458,0.181,2.178,0.325c1.276,0.258,2.528,0.633,3.727,1.14
	c0.55,0.232,1.087,0.49,1.611,0.776c0.523,0.287,1.033,0.603,1.522,0.94c0.471,0.322,0.923,0.673,1.355,1.04
	c0.436,0.368,0.849,0.764,1.245,1.174c0.78,0.811,1.478,1.696,2.089,2.645c0.308,0.474,0.594,0.962,0.857,1.464
	c0.266,0.502,0.506,1.016,0.725,1.538c0.223,0.526,0.423,1.067,0.6,1.611c0.176,0.549,0.331,1.1,0.463,1.659
	c0.268,1.132,0.442,2.284,0.525,3.447C168.814,575.517,168.81,576.684,168.712,577.84z"/>
<path fill="#FFFFFF" d="M199.503,600.708c-0.005-6.198-0.01-12.396-0.017-18.59c-0.005-6.198-0.013-12.396-0.02-18.59
	c-0.001-2.091-0.003-4.18-0.005-6.266c0-1.047-0.001-2.089-0.001-3.133c-0.002-0.522-0.002-1.047-0.002-1.565
	c0-0.262,0-0.524,0-0.782c-0.002-0.134-0.002-0.261-0.002-0.396c0-0.127,0-0.258,0.002-0.389c0-0.007,0-0.018,0-0.028
	c0-0.008,0-0.015,0-0.021c0-0.01,0-0.021,0-0.028c0-0.007,0.002-0.015,0.002-0.025c0-0.018,0-0.034,0-0.053
	c0.001-0.014,0.001-0.032,0.001-0.049c0.002-0.018,0.002-0.036,0.002-0.05c0.002-0.021,0.002-0.035,0.002-0.053
	c0.001-0.035,0.003-0.067,0.005-0.104c0.005-0.069,0.011-0.145,0.016-0.215c0.005-0.074,0.012-0.145,0.019-0.216
	c0.009-0.07,0.018-0.146,0.026-0.216c0.011-0.074,0.021-0.145,0.032-0.216c0.025-0.142,0.051-0.283,0.084-0.423
	c0.032-0.143,0.069-0.283,0.112-0.421c0.011-0.04,0.023-0.076,0.035-0.114c0.013-0.038,0.025-0.078,0.039-0.116
	c0.012-0.036,0.026-0.074,0.04-0.114c0.013-0.034,0.029-0.074,0.043-0.112c0.028-0.071,0.06-0.148,0.092-0.22
	c0.033-0.074,0.067-0.148,0.103-0.218c0.075-0.156,0.157-0.305,0.249-0.453c0.044-0.071,0.091-0.146,0.14-0.217
	c0.048-0.07,0.099-0.138,0.15-0.208c0.054-0.071,0.11-0.142,0.167-0.209c0.056-0.067,0.117-0.134,0.177-0.197
	c0.121-0.131,0.25-0.255,0.384-0.371c0.13-0.113,0.269-0.223,0.41-0.326c0.143-0.099,0.291-0.194,0.442-0.283
	c0.286-0.162,0.587-0.3,0.898-0.408c0.468-0.171,0.958-0.283,1.452-0.345c0.275-0.031,0.553-0.053,0.83-0.06
	c0.136-0.004,0.272-0.006,0.41-0.004c0.136,0.004,0.272,0.008,0.409,0.015c0.58,0.032,1.156,0.123,1.711,0.294
	c0.154,0.045,0.306,0.1,0.455,0.155c0.15,0.061,0.297,0.127,0.442,0.198c0.154,0.078,0.304,0.158,0.451,0.247
	c0.147,0.092,0.289,0.19,0.424,0.294c0.283,0.216,0.543,0.459,0.776,0.728c0.115,0.131,0.223,0.269,0.323,0.414
	c0.102,0.142,0.195,0.29,0.279,0.438c0.131,0.227,0.244,0.467,0.339,0.708c0.098,0.239,0.177,0.49,0.243,0.741
	c0.682-0.517,1.393-0.993,2.128-1.435c0.956-0.573,1.951-1.079,2.975-1.521c1.513-0.651,3.087-1.152,4.693-1.521
	c1.589-0.361,3.21-0.588,4.836-0.693c0.407-0.025,0.815-0.042,1.221-0.053c0.101-0.004,0.2-0.004,0.301-0.007
	c0.05,0,0.099-0.004,0.148-0.004c0.052,0,0.101,0,0.15,0.004c0.096,0,0.191,0,0.285,0.003c0.048,0,0.096,0,0.144,0
	c0.048,0,0.095,0,0.143,0c0.186,0.008,0.373,0.011,0.559,0.019c0.187,0.002,0.375,0.013,0.56,0.025
	c0.188,0.006,0.373,0.017,0.559,0.027c0.187,0.015,0.373,0.027,0.559,0.042c1.438,0.112,2.867,0.312,4.278,0.607
	c1.361,0.283,2.705,0.659,4.015,1.129c1.274,0.456,2.516,1.007,3.708,1.651c1.173,0.629,2.297,1.35,3.356,2.159
	c1.053,0.804,2.04,1.694,2.949,2.656c0.912,0.973,1.742,2.019,2.485,3.125c0.753,1.125,1.414,2.315,1.977,3.549
	c0.579,1.271,1.057,2.588,1.435,3.933c0.395,1.4,0.681,2.828,0.872,4.271c0.2,1.519,0.291,3.047,0.291,4.581
	c0,9.674,0,19.344,0,29.017c0,0.562-0.043,1.12-0.156,1.672c-0.084,0.404-0.204,0.8-0.365,1.182
	c-0.132,0.312-0.291,0.607-0.477,0.891c-0.194,0.294-0.419,0.569-0.67,0.82c-0.25,0.248-0.525,0.474-0.82,0.664
	c-0.281,0.188-0.58,0.347-0.89,0.479c-0.38,0.158-0.777,0.278-1.181,0.363c-0.275,0.057-0.554,0.092-0.833,0.12
	c-0.279,0.025-0.561,0.036-0.841,0.036c-0.279,0-0.561-0.011-0.84-0.036c-0.279-0.028-0.557-0.067-0.831-0.124
	c-0.203-0.038-0.403-0.091-0.601-0.15c-0.196-0.062-0.391-0.131-0.582-0.214c-0.31-0.131-0.609-0.289-0.889-0.478
	c-0.149-0.095-0.291-0.201-0.426-0.313c-0.138-0.113-0.269-0.23-0.393-0.354c-0.125-0.128-0.243-0.259-0.355-0.396
	c-0.111-0.134-0.216-0.279-0.311-0.424c-0.185-0.283-0.343-0.581-0.474-0.892c-0.082-0.19-0.15-0.381-0.21-0.579
	c-0.06-0.199-0.11-0.396-0.15-0.601c-0.057-0.273-0.096-0.553-0.121-0.829c-0.026-0.277-0.037-0.558-0.037-0.837
	c0-9.635,0-19.265,0-28.903c0-1.202-0.08-2.411-0.269-3.599c-0.163-1.032-0.408-2.058-0.755-3.045
	c-0.31-0.876-0.698-1.726-1.177-2.521c-0.444-0.738-0.965-1.428-1.556-2.058c-0.585-0.618-1.239-1.174-1.943-1.654
	c-0.741-0.503-1.536-0.928-2.364-1.276c-0.908-0.383-1.854-0.675-2.816-0.889c-0.539-0.12-1.082-0.218-1.628-0.292
	s-1.096-0.131-1.646-0.167c-0.3-0.017-0.601-0.031-0.901-0.042c-0.301-0.007-0.601-0.011-0.902-0.007
	c-0.278,0-0.555,0.007-0.833,0.021c-0.277,0.011-0.555,0.027-0.833,0.056c-0.518,0.05-1.034,0.12-1.545,0.213
	c-0.511,0.091-1.02,0.212-1.52,0.354c-0.471,0.133-0.934,0.289-1.39,0.467c-0.457,0.176-0.906,0.374-1.342,0.593
	c-0.843,0.425-1.644,0.935-2.392,1.51c-0.369,0.287-0.725,0.592-1.066,0.909c-0.339,0.318-0.665,0.657-0.974,1.008
	c-0.313,0.357-0.608,0.724-0.886,1.106c-0.277,0.385-0.537,0.78-0.779,1.188c-0.532,0.9-0.974,1.853-1.324,2.838
	c-0.173,0.488-0.324,0.98-0.453,1.482c-0.13,0.501-0.238,1.004-0.322,1.516c-0.092,0.542-0.159,1.09-0.203,1.638
	c-0.046,0.552-0.067,1.1-0.067,1.651c0,9.302,0,18.6,0,27.902c0,0.562-0.044,1.128-0.159,1.676
	c-0.083,0.406-0.205,0.802-0.366,1.185c-0.133,0.307-0.292,0.607-0.479,0.888c-0.194,0.293-0.419,0.569-0.67,0.816
	c-0.25,0.248-0.525,0.474-0.818,0.664c-0.281,0.188-0.58,0.347-0.889,0.479c-0.378,0.158-0.776,0.278-1.179,0.363
	c-0.276,0.057-0.554,0.092-0.833,0.12c-0.277,0.025-0.558,0.036-0.839,0.036c-0.279,0-0.561-0.011-0.84-0.036
	c-0.279-0.028-0.557-0.063-0.831-0.12c-0.203-0.042-0.403-0.095-0.599-0.154c-0.198-0.062-0.393-0.131-0.582-0.214
	c-0.311-0.127-0.608-0.289-0.889-0.474c-0.148-0.099-0.29-0.201-0.427-0.314c-0.137-0.11-0.268-0.229-0.393-0.354
	c-0.124-0.123-0.242-0.258-0.354-0.392c-0.111-0.139-0.218-0.28-0.313-0.425c-0.187-0.283-0.345-0.579-0.477-0.891
	c-0.08-0.191-0.151-0.386-0.21-0.581c-0.06-0.196-0.112-0.399-0.154-0.601c-0.055-0.275-0.095-0.552-0.121-0.835
	C199.516,601.266,199.503,600.983,199.503,600.708z"/>
<path fill="#FFFFFF" d="M288.938,530.478c0,0.573-0.053,1.148-0.168,1.711c-0.112,0.552-0.283,1.089-0.509,1.604
	c-0.222,0.495-0.496,0.973-0.822,1.408c-0.313,0.424-0.671,0.813-1.065,1.159c-0.381,0.332-0.794,0.63-1.23,0.88
	c-0.423,0.245-0.868,0.446-1.328,0.604c-0.889,0.312-1.831,0.472-2.773,0.472c-0.944,0-1.884-0.16-2.773-0.472
	c-0.46-0.158-0.905-0.359-1.328-0.604c-0.438-0.25-0.852-0.548-1.23-0.88c-0.396-0.347-0.755-0.735-1.067-1.159
	c-0.323-0.436-0.599-0.913-0.82-1.408c-0.228-0.516-0.397-1.053-0.509-1.604c-0.114-0.563-0.17-1.138-0.17-1.711
	c0-0.58,0.056-1.152,0.17-1.719c0.111-0.552,0.281-1.089,0.507-1.605c0.222-0.495,0.497-0.969,0.822-1.406
	c0.312-0.425,0.67-0.813,1.066-1.16c0.378-0.337,0.792-0.629,1.229-0.885c0.423-0.239,0.868-0.444,1.328-0.603
	c0.89-0.315,1.831-0.472,2.775-0.472c0.942,0,1.885,0.156,2.773,0.472c0.462,0.158,0.907,0.363,1.328,0.603
	c0.438,0.256,0.852,0.548,1.231,0.885c0.395,0.347,0.754,0.735,1.066,1.16c0.324,0.438,0.599,0.911,0.82,1.406
	c0.228,0.517,0.396,1.054,0.509,1.605C288.886,529.325,288.938,529.897,288.938,530.478z"/>
<path fill="#FFFFFF" d="M287.162,550.92c0-0.286-0.012-0.573-0.039-0.855c-0.026-0.298-0.07-0.594-0.133-0.884
	c-0.086-0.407-0.212-0.807-0.378-1.184c-0.142-0.323-0.313-0.635-0.515-0.924c-0.21-0.305-0.452-0.584-0.721-0.834
	c-0.268-0.255-0.561-0.474-0.873-0.665c-0.294-0.177-0.607-0.328-0.931-0.453c-0.467-0.173-0.956-0.29-1.451-0.357
	c-0.285-0.038-0.572-0.06-0.861-0.073c-0.138,0-0.277-0.005-0.416-0.005c-0.142,0.005-0.283,0.005-0.425,0.013
	c-0.294,0.013-0.587,0.042-0.875,0.091c-0.297,0.051-0.589,0.114-0.875,0.201c-0.322,0.1-0.637,0.224-0.936,0.376
	c-0.321,0.161-0.626,0.355-0.906,0.579c-0.29,0.23-0.554,0.491-0.789,0.774c-0.228,0.275-0.428,0.579-0.596,0.895
	c-0.157,0.294-0.286,0.604-0.391,0.926c-0.046,0.134-0.085,0.273-0.12,0.414c-0.035,0.134-0.065,0.275-0.092,0.417
	c-0.028,0.145-0.05,0.29-0.068,0.436c-0.01,0.074-0.019,0.145-0.025,0.219s-0.014,0.146-0.02,0.22
	c-0.002,0.038-0.005,0.074-0.007,0.109c-0.002,0.034-0.004,0.07-0.006,0.105c-0.002,0.021-0.002,0.039-0.003,0.058
	c0,0.017-0.002,0.034-0.002,0.056c0,0.014-0.002,0.035-0.002,0.054c0,0.018-0.001,0.034-0.001,0.053
	c-0.005,0.127-0.005,0.255-0.005,0.382s0,0.254,0,0.382c0,0.127,0,0.254,0,0.381c0,0.132,0,0.259,0,0.386c0,0.255,0,0.509,0,0.768
	c0,0.127,0,0.255,0,0.382s0,0.254,0,0.383c0,0.127,0,0.254,0,0.381s0,0.254,0,0.383c0,0.254,0,0.508,0,0.763
	c0,0.513,0,1.025,0,1.534c0,0.881,0,1.761,0,2.641c0,0.882,0,1.766,0,2.646s0,1.761,0,2.641c0,0.884,0,1.764,0,2.646
	c0,1.76,0,3.523,0,5.289c0,1.76,0,3.521,0,5.282c0,4.511,0,9.022,0,13.529c0,0.726-0.022,1.454-0.051,2.182
	c-0.033,0.885-0.076,1.769-0.101,2.652c-0.022,0.842-0.03,1.683-0.004,2.524c0.028,0.891,0.092,1.774,0.209,2.658
	c0.026,0.213,0.063,0.428,0.113,0.637c0.049,0.212,0.111,0.417,0.18,0.608c0.085,0.248,0.185,0.491,0.3,0.728
	c0.123,0.248,0.263,0.495,0.421,0.726c0.153,0.227,0.321,0.441,0.503,0.646c0.083,0.096,0.17,0.188,0.258,0.275
	c0.09,0.093,0.181,0.178,0.274,0.263c0.194,0.176,0.401,0.347,0.619,0.494c0.228,0.163,0.469,0.305,0.717,0.432
	c0.25,0.127,0.51,0.233,0.775,0.319c0.265,0.091,0.537,0.158,0.813,0.207c0.127,0.025,0.255,0.039,0.384,0.058
	c0.127,0.015,0.256,0.024,0.385,0.031c0.122,0.007,0.242,0.015,0.365,0.015c0.119,0,0.242,0,0.363-0.008
	c0.525-0.018,1.053-0.1,1.556-0.248c0.137-0.042,0.271-0.087,0.403-0.137c0.133-0.049,0.264-0.106,0.391-0.167
	c0.129-0.06,0.253-0.123,0.377-0.193c0.122-0.067,0.242-0.142,0.36-0.22c0.111-0.074,0.221-0.152,0.327-0.236
	c0.108-0.078,0.211-0.163,0.313-0.256c0.091-0.076,0.179-0.161,0.266-0.243c0.086-0.085,0.171-0.17,0.252-0.258
	c0.146-0.152,0.281-0.312,0.409-0.48c0.138-0.178,0.265-0.361,0.383-0.552c0.226-0.368,0.407-0.764,0.552-1.171
	c0.015-0.039,0.029-0.074,0.043-0.117c0.011-0.034,0.021-0.078,0.031-0.116c0.026-0.089,0.052-0.18,0.075-0.269
	c0.031-0.124,0.062-0.251,0.086-0.378c0.016-0.081,0.032-0.163,0.044-0.244c0.008-0.042,0.015-0.089,0.021-0.131
	c0.005-0.042,0.01-0.085,0.016-0.127c0.021-0.178,0.042-0.354,0.061-0.526c0.034-0.336,0.062-0.67,0.082-1.009
	c0.021-0.332,0.037-0.672,0.048-1.004c0.02-0.622,0.02-1.244,0.009-1.867c-0.01-0.622-0.031-1.244-0.057-1.863
	c-0.013-0.336-0.026-0.675-0.04-1.015c-0.015-0.339-0.026-0.675-0.039-1.011c-0.018-0.544-0.03-1.089-0.03-1.631
	C287.162,577.946,287.162,564.434,287.162,550.92z"/>
<path fill="#FFFFFF" d="M337.901,594.726c-0.715,0.262-1.442,0.48-2.182,0.65c-0.425,0.099-0.849,0.177-1.277,0.233
	c-0.37,0.049-0.745,0.081-1.116,0.089c-0.109,0.002-0.223,0.002-0.337,0.002c-0.198,0-0.396-0.006-0.593-0.013
	c-0.354-0.019-0.708-0.046-1.055-0.093c-0.366-0.049-0.731-0.112-1.089-0.208c-0.112-0.031-0.226-0.061-0.339-0.099
	c-0.113-0.036-0.228-0.074-0.333-0.117c-0.169-0.067-0.339-0.141-0.502-0.229c-0.158-0.085-0.313-0.181-0.463-0.29
	c-0.123-0.093-0.243-0.194-0.354-0.301c-0.109-0.105-0.215-0.226-0.307-0.347c-0.111-0.142-0.213-0.289-0.302-0.441
	c-0.087-0.152-0.169-0.315-0.243-0.478c-0.057-0.121-0.105-0.24-0.152-0.364c-0.046-0.124-0.089-0.247-0.131-0.372
	c-0.081-0.258-0.151-0.519-0.212-0.78c-0.061-0.266-0.113-0.526-0.156-0.795c-0.105-0.651-0.172-1.309-0.214-1.967
	c-0.051-0.764-0.069-1.535-0.069-2.298c0-10.013,0-20.025,0-30.038c4.313,0,8.625,0,12.934,0c0.511,0,1.016-0.043,1.514-0.142
	c0.376-0.077,0.743-0.19,1.093-0.339c0.294-0.12,0.573-0.269,0.838-0.446c0.279-0.184,0.537-0.396,0.777-0.628
	c0.234-0.237,0.446-0.499,0.629-0.778c0.178-0.262,0.325-0.545,0.452-0.835c0.149-0.354,0.263-0.726,0.341-1.1
	c0.049-0.25,0.084-0.499,0.105-0.753c0.025-0.254,0.036-0.51,0.036-0.764c0-0.255-0.011-0.51-0.036-0.761
	c-0.021-0.25-0.057-0.506-0.109-0.753c-0.074-0.374-0.188-0.742-0.337-1.096c-0.127-0.29-0.274-0.572-0.448-0.835
	c-0.184-0.281-0.396-0.54-0.633-0.778c-0.234-0.232-0.494-0.444-0.771-0.628c-0.265-0.178-0.543-0.325-0.837-0.446
	c-0.354-0.152-0.722-0.262-1.096-0.339c-0.499-0.105-1.007-0.146-1.518-0.146c-4.298,0-8.605,0-12.904,0
	c0.003-1.275,0.007-2.552,0.014-3.829c0-1.272,0.008-2.553,0.008-3.825c0.002-0.197,0.002-0.388,0.002-0.586
	c0-0.19,0-0.39,0.006-0.58c0-0.198,0-0.389,0-0.587c0-0.096,0-0.191,0-0.29c0-0.1,0-0.194,0-0.29
	c-0.006-0.036-0.006-0.071-0.008-0.105c0-0.021,0-0.04,0-0.058c0-0.017,0-0.035,0-0.053c0-0.017-0.003-0.035-0.003-0.053
	c-0.005-0.021-0.005-0.036-0.005-0.057c0-0.036-0.003-0.07-0.007-0.106c-0.004-0.071-0.007-0.147-0.015-0.22
	c-0.007-0.073-0.014-0.147-0.023-0.218c-0.009-0.075-0.019-0.149-0.029-0.22s-0.021-0.146-0.034-0.22
	c-0.011-0.07-0.025-0.142-0.04-0.212c-0.014-0.07-0.032-0.142-0.049-0.209c-0.036-0.138-0.07-0.279-0.112-0.413
	c-0.054-0.162-0.111-0.321-0.175-0.478c-0.066-0.156-0.138-0.307-0.215-0.456c-0.164-0.321-0.361-0.622-0.587-0.905
	c-0.121-0.142-0.241-0.282-0.375-0.41c-0.128-0.131-0.269-0.254-0.41-0.37c-0.142-0.114-0.29-0.216-0.438-0.315
	c-0.154-0.1-0.309-0.19-0.468-0.272c-0.3-0.152-0.615-0.279-0.933-0.378c-0.143-0.047-0.291-0.085-0.432-0.121
	c-0.149-0.034-0.297-0.063-0.441-0.091c-0.146-0.021-0.291-0.043-0.436-0.058c-0.149-0.017-0.294-0.027-0.438-0.034
	c-0.283-0.019-0.57-0.021-0.856-0.015c-0.142,0.007-0.29,0.015-0.432,0.025c-0.149,0.011-0.29,0.023-0.432,0.045
	c-0.251,0.036-0.498,0.078-0.742,0.138c-0.24,0.061-0.481,0.131-0.717,0.224c-0.16,0.057-0.323,0.127-0.479,0.201
	c-0.154,0.074-0.307,0.159-0.455,0.245c-0.314,0.19-0.604,0.412-0.873,0.664c-0.135,0.123-0.262,0.258-0.385,0.396
	c-0.121,0.142-0.234,0.287-0.34,0.438c-0.103,0.146-0.195,0.298-0.279,0.45c-0.089,0.152-0.166,0.315-0.237,0.477
	c-0.167,0.378-0.294,0.778-0.381,1.182c-0.032,0.148-0.061,0.296-0.082,0.446c-0.021,0.144-0.04,0.296-0.053,0.444
	c-0.014,0.142-0.024,0.283-0.032,0.431c-0.003,0.143-0.008,0.287-0.008,0.432c0.011,3.268,0.021,6.53,0.029,9.797
	c-1.959,0-3.925,0-5.887,0c-0.506,0-1.016,0.04-1.513,0.146c-0.379,0.077-0.746,0.187-1.101,0.339
	c-0.289,0.121-0.569,0.269-0.834,0.446c-0.275,0.184-0.537,0.396-0.774,0.628c-0.236,0.238-0.448,0.499-0.634,0.778
	c-0.169,0.263-0.32,0.545-0.444,0.835c-0.148,0.354-0.262,0.722-0.339,1.096c-0.05,0.247-0.086,0.503-0.111,0.753
	c-0.023,0.251-0.031,0.506-0.031,0.761c0,0.254,0.008,0.51,0.031,0.764c0.025,0.254,0.062,0.503,0.111,0.753
	c0.077,0.374,0.19,0.746,0.339,1.1c0.124,0.29,0.275,0.573,0.448,0.835c0.185,0.281,0.396,0.541,0.634,0.778
	c0.236,0.232,0.495,0.444,0.778,0.628c0.261,0.178,0.544,0.326,0.834,0.446c0.354,0.148,0.721,0.262,1.096,0.339
	c0.494,0.099,1.004,0.142,1.51,0.142c1.97,0,3.941,0,5.916,0c0,10.013,0,20.025,0,30.038c0,1.323,0.049,2.645,0.176,3.964
	c0.12,1.251,0.309,2.5,0.586,3.723c0.27,1.181,0.623,2.341,1.087,3.461c0.271,0.662,0.583,1.305,0.933,1.931
	c0.294,0.52,0.611,1.021,0.958,1.502c0.354,0.485,0.729,0.948,1.135,1.387c0.408,0.445,0.845,0.862,1.305,1.252
	c0.466,0.396,0.956,0.757,1.472,1.089c0.516,0.339,1.06,0.646,1.619,0.919c0.803,0.396,1.64,0.722,2.492,0.99
	c1.298,0.399,2.635,0.657,3.984,0.813c0.722,0.078,1.45,0.127,2.175,0.156c0.18,0.007,0.364,0.007,0.548,0.013
	c0.183,0,0.364,0,0.548,0c0.096,0,0.194,0,0.29,0c0.095-0.002,0.194-0.006,0.29-0.006c0.767-0.025,1.537-0.092,2.298-0.205
	c0.428-0.058,0.856-0.134,1.279-0.22c0.425-0.085,0.846-0.183,1.267-0.29c0.37-0.096,0.738-0.197,1.103-0.312
	c0.365-0.112,0.729-0.232,1.09-0.356c0.181-0.063,0.36-0.13,0.54-0.194c0.178-0.066,0.36-0.134,0.537-0.205
	c0.071-0.028,0.142-0.056,0.216-0.085c0.07-0.028,0.146-0.06,0.216-0.088c0.071-0.031,0.142-0.061,0.212-0.088
	c0.074-0.029,0.146-0.062,0.217-0.093c0.183-0.081,0.364-0.17,0.54-0.269c0.093-0.05,0.177-0.103,0.262-0.155
	c0.085-0.054,0.169-0.109,0.254-0.171c0.164-0.112,0.323-0.232,0.474-0.363c0.149-0.131,0.298-0.269,0.432-0.414
	c0.139-0.148,0.27-0.297,0.389-0.46c0.121-0.154,0.234-0.321,0.336-0.494c0.201-0.326,0.365-0.675,0.493-1.039
	c0.063-0.171,0.112-0.347,0.154-0.523c0.046-0.178,0.081-0.36,0.107-0.542c0.053-0.336,0.07-0.681,0.063-1.021
	c-0.008-0.343-0.051-0.686-0.114-1.018c-0.127-0.64-0.353-1.26-0.668-1.824c-0.159-0.29-0.343-0.569-0.548-0.831
	c-0.205-0.258-0.432-0.506-0.672-0.729c-0.261-0.236-0.537-0.452-0.835-0.639c-0.31-0.198-0.64-0.361-0.982-0.495
	c-0.36-0.142-0.732-0.245-1.109-0.309c-0.394-0.065-0.793-0.087-1.188-0.073c-0.399,0.021-0.8,0.077-1.185,0.177
	C338.565,594.464,338.229,594.584,337.901,594.726z"/>
<path fill="#FFFFFF" d="M399.567,546.473c-1.586-0.704-3.227-1.241-4.91-1.599c-1.853-0.396-3.747-0.573-5.66-0.522
	c-1.255,0.002-2.515,0.084-3.758,0.254c-1.02,0.135-2.037,0.325-3.034,0.577c-1.28,0.321-2.538,0.734-3.754,1.254
	c-1.245,0.526-2.447,1.16-3.578,1.902c-0.291,0.195-0.581,0.396-0.867,0.602c-0.061-0.209-0.131-0.417-0.215-0.619
	c-0.082-0.201-0.178-0.4-0.283-0.591c-0.163-0.294-0.35-0.573-0.565-0.827c-0.213-0.258-0.452-0.494-0.715-0.706
	c-0.247-0.198-0.516-0.379-0.799-0.531c-0.279-0.155-0.573-0.282-0.877-0.389c-0.233-0.078-0.466-0.146-0.707-0.198
	c-0.241-0.049-0.48-0.092-0.725-0.12c-0.259-0.028-0.521-0.043-0.781-0.05c-0.131-0.004-0.262-0.006-0.389-0.004
	c-0.127,0.004-0.256,0.008-0.386,0.015c-0.549,0.032-1.093,0.112-1.616,0.265c-0.304,0.089-0.604,0.203-0.891,0.34
	c-0.294,0.138-0.573,0.305-0.838,0.495c-0.272,0.198-0.526,0.421-0.757,0.664c-0.23,0.248-0.436,0.517-0.611,0.8
	c-0.169,0.269-0.311,0.552-0.432,0.848c-0.151,0.376-0.266,0.771-0.34,1.167c-0.102,0.521-0.142,1.051-0.142,1.577
	c0,16.547,0,33.093,0,49.637c0,0.559,0.044,1.12,0.156,1.664c0.081,0.404,0.201,0.8,0.361,1.182c0.134,0.312,0.29,0.607,0.477,0.891
	c0.194,0.29,0.418,0.565,0.668,0.816c0.247,0.252,0.524,0.474,0.82,0.668c0.279,0.185,0.58,0.347,0.891,0.479
	c0.379,0.158,0.775,0.278,1.182,0.363c0.272,0.057,0.552,0.092,0.831,0.12c0.279,0.025,0.559,0.036,0.838,0.036
	c0.282,0,0.562-0.011,0.841-0.036c0.279-0.028,0.559-0.063,0.831-0.12c0.201-0.042,0.403-0.091,0.599-0.154
	c0.197-0.062,0.392-0.129,0.582-0.214c0.309-0.127,0.608-0.285,0.888-0.474c0.148-0.095,0.29-0.197,0.428-0.311
	c0.139-0.114,0.266-0.23,0.393-0.354c0.123-0.127,0.241-0.255,0.354-0.393c0.113-0.138,0.216-0.279,0.314-0.428
	c0.188-0.279,0.343-0.577,0.478-0.888c0.077-0.187,0.148-0.385,0.212-0.579c0.058-0.199,0.11-0.4,0.152-0.599
	c0.057-0.275,0.096-0.555,0.12-0.834c0.024-0.274,0.039-0.558,0.039-0.837c0-9.787,0-19.573,0-29.359
	c0-1.002,0.095-1.998,0.289-2.981c0.192-0.947,0.472-1.873,0.842-2.768c0.361-0.874,0.806-1.715,1.322-2.507
	c0.523-0.788,1.118-1.528,1.782-2.207c0.665-0.675,1.39-1.286,2.171-1.823c0.778-0.538,1.612-0.998,2.481-1.376
	c0.446-0.194,0.902-0.364,1.365-0.512c0.464-0.15,0.934-0.277,1.411-0.376c0.494-0.106,0.993-0.185,1.495-0.239
	c0.255-0.029,0.503-0.051,0.757-0.064c0.127-0.01,0.254-0.014,0.378-0.021c0.127-0.004,0.252-0.008,0.379-0.008
	c0.123,0,0.247,0,0.368,0.004c0.127,0.004,0.247,0.007,0.37,0.011c0.245,0.014,0.492,0.027,0.735,0.053
	c0.491,0.046,0.976,0.116,1.461,0.205c0.233,0.046,0.459,0.095,0.692,0.148c0.226,0.053,0.456,0.113,0.683,0.18
	c0.227,0.063,0.448,0.135,0.675,0.213c0.224,0.074,0.446,0.154,0.665,0.239c0.329,0.163,0.671,0.302,1.026,0.403
	c0.438,0.128,0.89,0.205,1.347,0.223c0.448,0.019,0.895-0.013,1.332-0.102c0.212-0.043,0.417-0.096,0.622-0.163
	c0.201-0.063,0.403-0.142,0.595-0.23c0.353-0.158,0.693-0.355,1.008-0.583c0.313-0.225,0.607-0.484,0.873-0.767
	c0.487-0.52,0.891-1.12,1.188-1.768c0.149-0.325,0.269-0.661,0.363-1.008c0.097-0.339,0.16-0.692,0.195-1.047
	c0.022-0.19,0.028-0.375,0.032-0.565c0.003-0.188-0.004-0.374-0.019-0.566c-0.035-0.396-0.109-0.791-0.222-1.176
	c-0.125-0.41-0.29-0.804-0.499-1.178c-0.223-0.389-0.488-0.75-0.799-1.076c-0.312-0.332-0.665-0.622-1.05-0.869
	C400.35,546.819,399.968,546.628,399.567,546.473z"/>
<path fill="#FFFFFF" d="M337.745,257.159c-12.398-21.584-39.708-29.387-61.636-17.616c-11.483,6.166-17.02,15.698-23.063,26.152
	c-5.899,10.241-11.818,20.477-17.724,30.714c-23.653,40.949-47.29,81.897-70.927,122.851c-2.229,3.857,1.839,8.29,5.878,6.409
	c27.377-12.802,62.274,5.053,66.409,35.342c0.588,4.31,6.309,5.424,8.469,1.647c16.913-29.543,33.823-59.088,50.734-88.631
	c1.148-2.003,2.811-2.003,3.956,0c21.058,36.782,42.108,73.566,63.166,110.346c0.679,1.192,1.507,1.82,2.839,2.157
	c20.99,5.311,41.992,10.628,62.993,15.938c2.712,0.693,5.402-1.223,5.649-4.012c1.811-20.871,3.639-41.724,5.462-62.584
	c0.082-0.989-0.095-1.81-0.59-2.673c-33.909-58.734-67.812-117.474-101.71-176.205"/>
<path fill="#FFFFFF" d="M224.342,467.331c0-19.111-15.49-34.598-34.594-34.598c-19.106,0-34.603,15.486-34.603,34.598
	c0,19.114,15.497,34.607,34.603,34.607C208.853,501.938,224.342,486.445,224.342,467.331z"/>
</svg>
